%YAML 1.1
%TAG !u! tag:unity3d.com,2011:
--- !u!114 &11400000
MonoBehaviour:
  m_ObjectHideFlags: 0
  m_CorrespondingSourceObject: {fileID: 0}
  m_PrefabInstance: {fileID: 0}
  m_PrefabAsset: {fileID: 0}
  m_GameObject: {fileID: 0}
  m_Enabled: 1
  m_EditorHideFlags: 0
  m_Script: {fileID: 11500000, guid: d7fd9488000d3734a9e00ee676215985, type: 3}
  m_Name: Scene Settings Profile 1
  m_EditorClassIdentifier: 
  components:
  - {fileID: 114962058009566898}
  - {fileID: 114512783912708022}
  - {fileID: 114054940144238754}
  - {fileID: 114806844898951488}
--- !u!114 &114054940144238754
MonoBehaviour:
  m_ObjectHideFlags: 0
  m_CorrespondingSourceObject: {fileID: 0}
  m_PrefabInstance: {fileID: 0}
  m_PrefabAsset: {fileID: 0}
  m_GameObject: {fileID: 0}
  m_Enabled: 1
  m_EditorHideFlags: 0
  m_Script: {fileID: 11500000, guid: 2150ee00179b2f4418ea8b21a7e98eea, type: 3}
  m_Name: 
  m_EditorClassIdentifier: 
  active: 1
  colorMode:
    m_OverrideState: 1
    m_Value: 1
  color:
    m_OverrideState: 1
    m_Value: {r: 0.5, g: 0.5, b: 0.5, a: 1}
    hdr: 1
    showAlpha: 0
    showEyeDropper: 1
  density:
    m_OverrideState: 1
    m_Value: 1
    min: 0
    max: 1
  mipFogMaxMip:
    m_OverrideState: 1
    m_Value: 0.5
    min: 0
    max: 1
  mipFogNear:
    m_OverrideState: 1
    m_Value: 0
    min: 0
  mipFogFar:
    m_OverrideState: 1
    m_Value: 1000
    min: 0
  fogDistance:
    m_OverrideState: 1
    m_Value: 200
    min: 0
  fogBaseHeight:
    m_OverrideState: 1
    m_Value: 0
  fogHeightAttenuation:
    m_OverrideState: 1
    m_Value: 0.2
    min: 0
    max: 1
--- !u!114 &114512783912708022
MonoBehaviour:
  m_ObjectHideFlags: 0
  m_CorrespondingSourceObject: {fileID: 0}
  m_PrefabInstance: {fileID: 0}
  m_PrefabAsset: {fileID: 0}
  m_GameObject: {fileID: 0}
  m_Enabled: 1
  m_EditorHideFlags: 0
  m_Script: {fileID: 11500000, guid: 0d7593b3a9277ac4696b20006c21dde2, type: 3}
  m_Name: 
  m_EditorClassIdentifier: 
  active: 1
  skyType:
    m_OverrideState: 1
    m_Value: 1
  fogType:
    m_OverrideState: 1
    m_Value: 2
--- !u!114 &114806844898951488
MonoBehaviour:
  m_ObjectHideFlags: 3
  m_CorrespondingSourceObject: {fileID: 0}
  m_PrefabInstance: {fileID: 0}
  m_PrefabAsset: {fileID: 0}
  m_GameObject: {fileID: 0}
  m_Enabled: 1
  m_EditorHideFlags: 0
  m_Script: {fileID: 11500000, guid: 59b6606ef2548734bb6d11b9d160bc7e, type: 3}
  m_Name: HDRISky
  m_EditorClassIdentifier: 
  active: 1
  rotation:
    m_OverrideState: 0
    m_Value: 0
    min: 0
    max: 360
  skyIntensityMode:
    m_OverrideState: 1
    m_Value: 0
  exposure:
    m_OverrideState: 0
    m_Value: 0
  multiplier:
    m_OverrideState: 0
    m_Value: 1
    min: 0
  upperHemisphereLuxValue:
    m_OverrideState: 0
    m_Value: 0.28431922
    min: 0
  desiredLuxValue:
    m_OverrideState: 0
    m_Value: 20000
  updateMode:
    m_OverrideState: 0
    m_Value: 0
  updatePeriod:
    m_OverrideState: 0
    m_Value: 0
    min: 0
  includeSunInBaking:
    m_OverrideState: 0
    m_Value: 0
  hdriSky:
    m_OverrideState: 1
    m_Value: {fileID: 8900000, guid: 15d84dcdfd9e365459ae74206a4c0350, type: 3}
--- !u!114 &114962058009566898
MonoBehaviour:
  m_ObjectHideFlags: 0
  m_CorrespondingSourceObject: {fileID: 0}
  m_PrefabInstance: {fileID: 0}
  m_PrefabAsset: {fileID: 0}
  m_GameObject: {fileID: 0}
  m_Enabled: 1
  m_EditorHideFlags: 0
  m_Script: {fileID: 11500000, guid: 7ddcec8a8eb2d684d833ac8f5d26aebd, type: 3}
  m_Name: 
  m_EditorClassIdentifier: 
  active: 1
  maxShadowDistance:
    m_OverrideState: 1
    m_Value: 500
    min: 0
  cascadeShadowSplitCount:
    m_OverrideState: 1
    m_Value: 4
    min: 1
    max: 4
  cascadeShadowSplit0:
    m_OverrideState: 1
    m_Value: 0.05
    min: 0
    max: 1
  cascadeShadowSplit1:
    m_OverrideState: 1
    m_Value: 0.15
    min: 0
    max: 1
  cascadeShadowSplit2:
    m_OverrideState: 1
    m_Value: 0.3
    min: 0
    max: 1
  cascadeShadowBorder0:
    m_OverrideState: 1
    m_Value: 0
    min: 0
  cascadeShadowBorder1:
    m_OverrideState: 1
    m_Value: 0
    min: 0
  cascadeShadowBorder2:
    m_OverrideState: 1
    m_Value: 0
    min: 0
  cascadeShadowBorder3:
    m_OverrideState: 1
    m_Value: 0
    min: 0
