%YAML 1.1
%TAG !u! tag:unity3d.com,2011:
--- !u!21 &2100000
Material:
  serializedVersion: 6
  m_ObjectHideFlags: 0
  m_CorrespondingSourceObject: {fileID: 0}
  m_PrefabInstance: {fileID: 0}
  m_PrefabAsset: {fileID: 0}
  m_Name: Knight_Armor
  m_Shader: {fileID: 4800000, guid: a8b63594cd243c240911bd14e4c5c9ac, type: 3}
  m_ShaderKeywords: _NORMALMAP_TANGENT_SPACE
  m_LightmapFlags: 4
  m_EnableInstancingVariants: 0
  m_DoubleSidedGI: 0
  m_CustomRenderQueue: -1
  stringTagMap: {}
  disabledShaderPasses:
  - DistortionVectors
  - TransparentDepthPrepass
  - TransparentDepthPostpass
  - TransparentBackface
  - MOTIONVECTORS
  m_SavedProperties:
    serializedVersion: 3
    m_TexEnvs:
    - Texture2D_408C546B:
        m_Texture: {fileID: 2800000, guid: 92e17aa410adbe6418132c73c0537694, type: 3}
        m_Scale: {x: 1, y: 1}
        m_Offset: {x: 0, y: 0}
    - Texture2D_D6D492EB:
        m_Texture: {fileID: 2800000, guid: 1611553d811fe4e4e92fdf77c30dffd2, type: 3}
        m_Scale: {x: 1, y: 1}
        m_Offset: {x: 0, y: 0}
    m_Floats:
    - Vector1_15DA31E5: 0
    - Vector1_1FF49EE3: 0
    - Vector1_CC713D36: 0
    - Vector1_CD0D2723: 0
    - Vector1_E33F05AB: 0
    - Vector1_EE047605: 0
    - Vector1_EFACF34D: 0
    - Vector1_F5C312DC: 0
    - Vector1_F8B81FA6: 0
    m_Colors:
    - Color_77E787BE: {r: 0, g: 0, b: 0, a: 0}
    - _ToonLightDirection: {r: 0.5, g: 0.5, b: 0, a: 0}
